\relax 
\providecommand\zref@newlabel[2]{}
\select@language {greek}
\@writefile{toc}{\select@language {greek}}
\@writefile{lof}{\select@language {greek}}
\@writefile{lot}{\select@language {greek}}
\@writefile{lof}{\contentsline {figure}{\numberline {1}{\ignorespaces Μορφή δεδομένων dataset\relax }}{1}}
\newlabel{eq:cos}{{1}{1}}
\newlabel{eq:predictRate}{{2}{2}}
\@writefile{lof}{\contentsline {figure}{\numberline {2}{\ignorespaces Πίνακας ratings για χρήστη\relax }}{2}}
\providecommand*\caption@xref[2]{\@setref\relax\@undefined{#1}}
\newlabel{fig:ratingsMatrix}{{2}{2}}
\newlabel{eq:totcostL1}{{4}{3}}
\@writefile{lof}{\contentsline {figure}{\numberline {3}{\ignorespaces Ευριστικός αλγόριθμος για $L=1$\relax }}{4}}
\newlabel{fig:heuristic1}{{3}{4}}
\@writefile{lof}{\contentsline {figure}{\numberline {4}{\ignorespaces Ακέραιο γραμμικό πρόγραμμα για ελαχιστοποίηση κόστους με χρήση pymprog\relax }}{5}}
\newlabel{fig:Ιp}{{4}{5}}
\@writefile{lof}{\contentsline {figure}{\numberline {5}{\ignorespaces Γραφική παράσταση για $L=1$\relax }}{6}}
\newlabel{fig:graphL1}{{5}{6}}
\@writefile{lot}{\contentsline {table}{\numberline {1}{\ignorespaces Τιμές κόστους για $L=1$\relax }}{6}}
\newlabel{table:L1}{{1}{6}}
\@writefile{lof}{\contentsline {figure}{\numberline {6}{\ignorespaces Ευριστικός αλγόριθμος για $L>1$\relax }}{7}}
\newlabel{fig:heuristic2}{{6}{7}}
\@writefile{lof}{\contentsline {figure}{\numberline {7}{\ignorespaces Γραφική παράσταση για $L=2$\relax }}{7}}
\newlabel{fig:graphL2}{{7}{7}}
\@writefile{lot}{\contentsline {table}{\numberline {2}{\ignorespaces Τιμές κόστους για $L=2$\relax }}{8}}
\newlabel{table:L2}{{2}{8}}
\@writefile{lof}{\contentsline {figure}{\numberline {8}{\ignorespaces Γραφική παράσταση για $L=5$\relax }}{8}}
\newlabel{fig:graphL5}{{8}{8}}
\@writefile{lot}{\contentsline {table}{\numberline {3}{\ignorespaces Τιμές κόστους για $L=5$\relax }}{8}}
\newlabel{table:L5}{{3}{8}}
\@writefile{lof}{\contentsline {figure}{\numberline {9}{\ignorespaces Γραφική παράσταση για $L=10$\relax }}{9}}
\newlabel{fig:graphL10}{{9}{9}}
\@writefile{lot}{\contentsline {table}{\numberline {4}{\ignorespaces Τιμές κόστους για $L=10$\relax }}{9}}
\newlabel{table:L10}{{4}{9}}
\@writefile{lof}{\contentsline {figure}{\numberline {10}{\ignorespaces Ευριστικός αλγόριθμος για fairness\relax }}{10}}
\newlabel{fig:heuristic3}{{10}{10}}
\@writefile{lof}{\contentsline {figure}{\numberline {11}{\ignorespaces Ακέραιο γραμμικό πρόγραμμα για Fairness με το pymprog\relax }}{11}}
\newlabel{fig:Ip2}{{11}{11}}
\@writefile{lof}{\contentsline {figure}{\numberline {12}{\ignorespaces Γραφική παράσταση για $L=1$\relax }}{12}}
\newlabel{fig:graphL1F}{{12}{12}}
\@writefile{lot}{\contentsline {table}{\numberline {5}{\ignorespaces Τιμές standard deviation για $L=1$\relax }}{12}}
\newlabel{table:L1F}{{5}{12}}
\@writefile{lof}{\contentsline {figure}{\numberline {13}{\ignorespaces Γραφική παράσταση για $L=2$\relax }}{12}}
\newlabel{fig:graphL2F}{{13}{12}}
\@writefile{lot}{\contentsline {table}{\numberline {6}{\ignorespaces Τιμές standard deviation για $L=2$\relax }}{13}}
\newlabel{table:L2F}{{6}{13}}
\@writefile{lof}{\contentsline {figure}{\numberline {14}{\ignorespaces Γραφική παράσταση για $L=5$\relax }}{13}}
\newlabel{fig:graphL5F}{{14}{13}}
\@writefile{lot}{\contentsline {table}{\numberline {7}{\ignorespaces Τιμές standard deviation για $L=5$\relax }}{13}}
\newlabel{table:L5F}{{7}{13}}
